Proyecto_digitales_CIRCUITO_CONTROLADOR_DE_TARJETAS_DE_LA_METROV-A/proyecto circuito controlador de tarjeta de la metrovia/simulation/qsim/proyecto.msim.vcd
$comment
	File created using the following command:
		vcd file proyecto.msim.vcd -direction
$end
$date
	Thu Jan 10 19:18:10 2019
$end
$version
	ModelSim Version 10.5b
$end
$timescale
	1ps
$end

$scope module simulacion_vhd_vec_tst $end
$var wire 1 ! Clock $end
$var wire 1 " Clock2 $end
$var wire 1 # Comprar $end
$var wire 1 $ enM $end
$var wire 1 % enN $end
$var wire 1 & ET $end
$var wire 1 ' ID_usQ [3] $end
$var wire 1 ( ID_usQ [2] $end
$var wire 1 ) ID_usQ [1] $end
$var wire 1 * ID_usQ [0] $end
$var wire 1 + Lectura $end
$var wire 1 , Led_Inicio $end
$var wire 1 - LedMonedaIn $end
$var wire 1 . moneda $end
$var wire 1 / n_monedas [2] $end
$var wire 1 0 n_monedas [1] $end
$var wire 1 1 n_monedas [0] $end
$var wire 1 2 n_viajes [4] $end
$var wire 1 3 n_viajes [3] $end
$var wire 1 4 n_viajes [2] $end
$var wire 1 5 n_viajes [1] $end
$var wire 1 6 n_viajes [0] $end
$var wire 1 7 n_viajesQ [4] $end
$var wire 1 8 n_viajesQ [3] $end
$var wire 1 9 n_viajesQ [2] $end
$var wire 1 : n_viajesQ [1] $end
$var wire 1 ; n_viajesQ [0] $end
$var wire 1 < Pasa $end
$var wire 1 = pasaMoneda $end
$var wire 1 > Puerta $end
$var wire 1 ? Reset $end
$var wire 1 @ resetD $end
$var wire 1 A resetNN $end
$var wire 1 B resetRG $end
$var wire 1 C RetirarT $end
$var wire 1 D Start $end
$var wire 1 E stopM $end
$var wire 1 F stopN $end

$scope module i1 $end
$var wire 1 G gnd $end
$var wire 1 H vcc $end
$var wire 1 I unknown $end
$var wire 1 J devoe $end
$var wire 1 K devclrn $end
$var wire 1 L devpor $end
$var wire 1 M ww_devoe $end
$var wire 1 N ww_devclrn $end
$var wire 1 O ww_devpor $end
$var wire 1 P ww_Led_Inicio $end
$var wire 1 Q ww_Reset $end
$var wire 1 R ww_Start $end
$var wire 1 S ww_Pasa $end
$var wire 1 T ww_RetirarT $end
$var wire 1 U ww_Puerta $end
$var wire 1 V ww_Lectura $end
$var wire 1 W ww_stopN $end
$var wire 1 X ww_n_viajesQ [4] $end
$var wire 1 Y ww_n_viajesQ [3] $end
$var wire 1 Z ww_n_viajesQ [2] $end
$var wire 1 [ ww_n_viajesQ [1] $end
$var wire 1 \ ww_n_viajesQ [0] $end
$var wire 1 ] ww_Clock2 $end
$var wire 1 ^ ww_resetRG $end
$var wire 1 _ ww_Clock $end
$var wire 1 ` ww_ID_usQ [3] $end
$var wire 1 a ww_ID_usQ [2] $end
$var wire 1 b ww_ID_usQ [1] $end
$var wire 1 c ww_ID_usQ [0] $end
$var wire 1 d ww_n_viajes [4] $end
$var wire 1 e ww_n_viajes [3] $end
$var wire 1 f ww_n_viajes [2] $end
$var wire 1 g ww_n_viajes [1] $end
$var wire 1 h ww_n_viajes [0] $end
$var wire 1 i ww_enN $end
$var wire 1 j ww_resetNN $end
$var wire 1 k ww_Comprar $end
$var wire 1 l ww_moneda $end
$var wire 1 m ww_stopM $end
$var wire 1 n ww_n_monedas [2] $end
$var wire 1 o ww_n_monedas [1] $end
$var wire 1 p ww_n_monedas [0] $end
$var wire 1 q ww_enM $end
$var wire 1 r ww_resetD $end
$var wire 1 s ww_pasaMoneda $end
$var wire 1 t ww_LedMonedaIn $end
$var wire 1 u ww_ET $end
$var wire 1 v \inst4|altsyncram_component|auto_generated|ram_block1a4_PORTADATAIN_bus\ [0] $end
$var wire 1 w \inst4|altsyncram_component|auto_generated|ram_block1a4_PORTAADDR_bus\ [3] $end
$var wire 1 x \inst4|altsyncram_component|auto_generated|ram_block1a4_PORTAADDR_bus\ [2] $end
$var wire 1 y \inst4|altsyncram_component|auto_generated|ram_block1a4_PORTAADDR_bus\ [1] $end
$var wire 1 z \inst4|altsyncram_component|auto_generated|ram_block1a4_PORTAADDR_bus\ [0] $end
$var wire 1 { \inst4|altsyncram_component|auto_generated|ram_block1a4_PORTADATAOUT_bus\ [0] $end
$var wire 1 | \inst4|altsyncram_component|auto_generated|ram_block1a2_PORTADATAIN_bus\ [0] $end
$var wire 1 } \inst4|altsyncram_component|auto_generated|ram_block1a2_PORTAADDR_bus\ [3] $end
$var wire 1 ~ \inst4|altsyncram_component|auto_generated|ram_block1a2_PORTAADDR_bus\ [2] $end
$var wire 1 !! \inst4|altsyncram_component|auto_generated|ram_block1a2_PORTAADDR_bus\ [1] $end
$var wire 1 "! \inst4|altsyncram_component|auto_generated|ram_block1a2_PORTAADDR_bus\ [0] $end
$var wire 1 #! \inst4|altsyncram_component|auto_generated|ram_block1a2_PORTADATAOUT_bus\ [0] $end
$var wire 1 $! \inst4|altsyncram_component|auto_generated|ram_block1a3_PORTADATAIN_bus\ [0] $end
$var wire 1 %! \inst4|altsyncram_component|auto_generated|ram_block1a3_PORTAADDR_bus\ [3] $end
$var wire 1 &! \inst4|altsyncram_component|auto_generated|ram_block1a3_PORTAADDR_bus\ [2] $end
$var wire 1 '! \inst4|altsyncram_component|auto_generated|ram_block1a3_PORTAADDR_bus\ [1] $end
$var wire 1 (! \inst4|altsyncram_component|auto_generated|ram_block1a3_PORTAADDR_bus\ [0] $end
$var wire 1 )! \inst4|altsyncram_component|auto_generated|ram_block1a3_PORTADATAOUT_bus\ [0] $end
$var wire 1 *! \inst4|altsyncram_component|auto_generated|ram_block1a1_PORTADATAIN_bus\ [0] $end
$var wire 1 +! \inst4|altsyncram_component|auto_generated|ram_block1a1_PORTAADDR_bus\ [3] $end
$var wire 1 ,! \inst4|altsyncram_component|auto_generated|ram_block1a1_PORTAADDR_bus\ [2] $end
$var wire 1 -! \inst4|altsyncram_component|auto_generated|ram_block1a1_PORTAADDR_bus\ [1] $end
$var wire 1 .! \inst4|altsyncram_component|auto_generated|ram_block1a1_PORTAADDR_bus\ [0] $end
$var wire 1 /! \inst4|altsyncram_component|auto_generated|ram_block1a1_PORTADATAOUT_bus\ [0] $end
$var wire 1 0! \inst4|altsyncram_component|auto_generated|ram_block1a0_PORTADATAIN_bus\ [0] $end
$var wire 1 1! \inst4|altsyncram_component|auto_generated|ram_block1a0_PORTAADDR_bus\ [3] $end
$var wire 1 2! \inst4|altsyncram_component|auto_generated|ram_block1a0_PORTAADDR_bus\ [2] $end
$var wire 1 3! \inst4|altsyncram_component|auto_generated|ram_block1a0_PORTAADDR_bus\ [1] $end
$var wire 1 4! \inst4|altsyncram_component|auto_generated|ram_block1a0_PORTAADDR_bus\ [0] $end
$var wire 1 5! \inst4|altsyncram_component|auto_generated|ram_block1a0_PORTADATAOUT_bus\ [0] $end
$var wire 1 6! \Led_Inicio~output_o\ $end
$var wire 1 7! \stopN~output_o\ $end
$var wire 1 8! \n_viajesQ[4]~output_o\ $end
$var wire 1 9! \n_viajesQ[3]~output_o\ $end
$var wire 1 :! \n_viajesQ[2]~output_o\ $end
$var wire 1 ;! \n_viajesQ[1]~output_o\ $end
$var wire 1 <! \n_viajesQ[0]~output_o\ $end
$var wire 1 =! \resetRG~output_o\ $end
$var wire 1 >! \n_viajes[4]~output_o\ $end
$var wire 1 ?! \n_viajes[3]~output_o\ $end
$var wire 1 @! \n_viajes[2]~output_o\ $end
$var wire 1 A! \n_viajes[1]~output_o\ $end
$var wire 1 B! \n_viajes[0]~output_o\ $end
$var wire 1 C! \enN~output_o\ $end
$var wire 1 D! \resetNN~output_o\ $end
$var wire 1 E! \stopM~output_o\ $end
$var wire 1 F! \n_monedas[2]~output_o\ $end
$var wire 1 G! \n_monedas[1]~output_o\ $end
$var wire 1 H! \n_monedas[0]~output_o\ $end
$var wire 1 I! \enM~output_o\ $end
$var wire 1 J! \resetD~output_o\ $end
$var wire 1 K! \pasaMoneda~output_o\ $end
$var wire 1 L! \LedMonedaIn~output_o\ $end
$var wire 1 M! \ET~output_o\ $end
$var wire 1 N! \Clock~input_o\ $end
$var wire 1 O! \Lectura~input_o\ $end
$var wire 1 P! \Start~input_o\ $end
$var wire 1 Q! \inst2|y.Ta~0_combout\ $end
$var wire 1 R! \Reset~input_o\ $end
$var wire 1 S! \inst2|y.Ta~q\ $end
$var wire 1 T! \inst2|y~31_combout\ $end
$var wire 1 U! \inst2|y.Tb~q\ $end
$var wire 1 V! \Puerta~input_o\ $end
$var wire 1 W! \inst19|Q[0]~0_combout\ $end
$var wire 1 X! \moneda~input_o\ $end
$var wire 1 Y! \inst2|y~29_combout\ $end
$var wire 1 Z! \inst2|y.Tp~q\ $end
$var wire 1 [! \Comprar~input_o\ $end
$var wire 1 \! \Clock2~input_o\ $end
$var wire 1 ]! \inst|Q[0]~0_combout\ $end
$var wire 1 ^! \ID_usQ[0]~input_o\ $end
$var wire 1 _! \inst2|enRG~combout\ $end
$var wire 1 `! \ID_usQ[1]~input_o\ $end
$var wire 1 a! \ID_usQ[2]~input_o\ $end
$var wire 1 b! \ID_usQ[3]~input_o\ $end
$var wire 1 c! \inst|Add0~3_combout\ $end
$var wire 1 d! \inst|Add0~2_combout\ $end
$var wire 1 e! \inst|Add0~1_combout\ $end
$var wire 1 f! \inst15~0_combout\ $end
$var wire 1 g! \inst2|y~34_combout\ $end
$var wire 1 h! \inst2|y.Td~q\ $end
$var wire 1 i! \inst2|Selector2~0_combout\ $end
$var wire 1 j! \inst2|y.Tk~q\ $end
$var wire 1 k! \inst2|Selector3~0_combout\ $end
$var wire 1 l! \inst2|y.Tm~q\ $end
$var wire 1 m! \inst2|Selector4~0_combout\ $end
$var wire 1 n! \inst2|y.Tn~q\ $end
$var wire 1 o! \inst2|Selector7~0_combout\ $end
$var wire 1 p! \inst2|y.Tx~q\ $end
$var wire 1 q! \inst2|EnM~combout\ $end
$var wire 1 r! \inst19|Add0~1_combout\ $end
$var wire 1 s! \inst14~0_combout\ $end
$var wire 1 t! \inst19|Add0~0_combout\ $end
$var wire 1 u! \inst2|y~32_combout\ $end
$var wire 1 v! \inst2|y.Tq~q\ $end
$var wire 1 w! \inst2|save~combout\ $end
$var wire 1 x! \inst|Add0~0_combout\ $end
$var wire 1 y! \inst2|y~33_combout\ $end
$var wire 1 z! \inst2|y.Te~q\ $end
$var wire 1 {! \inst2|y.Tz~q\ $end
$var wire 1 |! \inst2|y.Tf~q\ $end
$var wire 1 }! \inst2|y.Th~q\ $end
$var wire 1 ~! \inst2|Selector1~0_combout\ $end
$var wire 1 !" \inst2|y.Ti~q\ $end
$var wire 1 "" \inst2|y~27_combout\ $end
$var wire 1 #" \inst2|y.Tj~q\ $end
$var wire 1 $" \RetirarT~input_o\ $end
$var wire 1 %" \inst2|Selector5~0_combout\ $end
$var wire 1 &" \inst2|y.Tr~q\ $end
$var wire 1 '" \inst2|y~30_combout\ $end
$var wire 1 (" \inst2|y.Ts~q\ $end
$var wire 1 )" \Pasa~input_o\ $end
$var wire 1 *" \inst2|Selector6~0_combout\ $end
$var wire 1 +" \inst2|y.tt~q\ $end
$var wire 1 ," \inst2|y~28_combout\ $end
$var wire 1 -" \inst2|y.Tu~q\ $end
$var wire 1 ." \inst2|Selector0~0_combout\ $end
$var wire 1 /" \inst2|Selector0~1_combout\ $end
$var wire 1 0" \inst2|y.Tc~q\ $end
$var wire 1 1" \inst2|resetD~combout\ $end
$var wire 1 2" \inst2|WideOr9~combout\ $end
$var wire 1 3" \inst2|WideOr11~combout\ $end
$var wire 1 4" \inst2|ET~combout\ $end
$var wire 1 5" \inst4|altsyncram_component|auto_generated|q_a\ [4] $end
$var wire 1 6" \inst4|altsyncram_component|auto_generated|q_a\ [3] $end
$var wire 1 7" \inst4|altsyncram_component|auto_generated|q_a\ [2] $end
$var wire 1 8" \inst4|altsyncram_component|auto_generated|q_a\ [1] $end
$var wire 1 9" \inst4|altsyncram_component|auto_generated|q_a\ [0] $end
$var wire 1 :" \inst|Q\ [4] $end
$var wire 1 ;" \inst|Q\ [3] $end
$var wire 1 <" \inst|Q\ [2] $end
$var wire 1 =" \inst|Q\ [1] $end
$var wire 1 >" \inst|Q\ [0] $end
$var wire 1 ?" \inst19|Q\ [2] $end
$var wire 1 @" \inst19|Q\ [1] $end
$var wire 1 A" \inst19|Q\ [0] $end
$var wire 1 B" \inst5|temp\ [2] $end
$var wire 1 C" \inst5|temp\ [1] $end
$var wire 1 D" \inst5|temp\ [0] $end
$var wire 1 E" \inst21|temp\ [3] $end
$var wire 1 F" \inst21|temp\ [2] $end
$var wire 1 G" \inst21|temp\ [1] $end
$var wire 1 H" \inst21|temp\ [0] $end
$var wire 1 I" \inst2|ALT_INV_y.Th~q\ $end
$var wire 1 J" \inst2|ALT_INV_y.Tm~q\ $end
$var wire 1 K" \inst5|ALT_INV_temp\ [2] $end
$var wire 1 L" \inst5|ALT_INV_temp\ [1] $end
$var wire 1 M" \inst5|ALT_INV_temp\ [0] $end
$var wire 1 N" \inst2|ALT_INV_y.Tq~q\ $end
$var wire 1 O" \inst2|ALT_INV_y.Tf~q\ $end
$var wire 1 P" \inst2|ALT_INV_Selector0~0_combout\ $end
$var wire 1 Q" \inst2|ALT_INV_y.Tb~q\ $end
$var wire 1 R" \inst2|ALT_INV_y.Ts~q\ $end
$var wire 1 S" \inst2|ALT_INV_y.Tr~q\ $end
$var wire 1 T" \inst2|ALT_INV_y.Tx~q\ $end
$var wire 1 U" \inst2|ALT_INV_y.Tn~q\ $end
$var wire 1 V" \inst2|ALT_INV_y.Tp~q\ $end
$var wire 1 W" \inst2|ALT_INV_y.Tu~q\ $end
$var wire 1 X" \inst2|ALT_INV_y.tt~q\ $end
$var wire 1 Y" \inst2|ALT_INV_y.Tj~q\ $end
$var wire 1 Z" \inst2|ALT_INV_y.Ti~q\ $end
$var wire 1 [" \ALT_INV_inst14~0_combout\ $end
$var wire 1 \" \inst19|ALT_INV_Q\ [2] $end
$var wire 1 ]" \inst19|ALT_INV_Q\ [1] $end
$var wire 1 ^" \inst19|ALT_INV_Q\ [0] $end
$var wire 1 _" \ALT_INV_inst15~0_combout\ $end
$var wire 1 `" \inst2|ALT_INV_y.Tc~q\ $end
$var wire 1 a" \inst4|altsyncram_component|auto_generated|ALT_INV_q_a\ [4] $end
$var wire 1 b" \inst4|altsyncram_component|auto_generated|ALT_INV_q_a\ [3] $end
$var wire 1 c" \inst4|altsyncram_component|auto_generated|ALT_INV_q_a\ [2] $end
$var wire 1 d" \inst4|altsyncram_component|auto_generated|ALT_INV_q_a\ [1] $end
$var wire 1 e" \inst4|altsyncram_component|auto_generated|ALT_INV_q_a\ [0] $end
$var wire 1 f" \ALT_INV_RetirarT~input_o\ $end
$var wire 1 g" \ALT_INV_Comprar~input_o\ $end
$var wire 1 h" \ALT_INV_moneda~input_o\ $end
$var wire 1 i" \ALT_INV_Puerta~input_o\ $end
$var wire 1 j" \ALT_INV_Pasa~input_o\ $end
$var wire 1 k" \ALT_INV_Start~input_o\ $end
$var wire 1 l" \ALT_INV_Lectura~input_o\ $end
$var wire 1 m" \inst2|ALT_INV_enRG~combout\ $end
$var wire 1 n" \inst2|ALT_INV_resetD~combout\ $end
$var wire 1 o" \inst2|ALT_INV_EnM~combout\ $end
$var wire 1 p" \inst2|ALT_INV_y.Td~q\ $end
$var wire 1 q" \inst2|ALT_INV_y.Tk~q\ $end
$var wire 1 r" \inst2|ALT_INV_y.Ta~q\ $end
$upscope $end
$upscope $end
$enddefinitions $end
#0
$dumpvars
1!
0"
0#
x$
1%
0&
0+
0,
0-
0.
0<
0=
0>
0?
x@
1A
1B
0C
0D
0E
0F
0G
1H
xI
1J
1K
1L
1M
1N
1O
0P
0Q
0R
0S
0T
0U
0V
0W
0]
1^
1_
1i
1j
0k
0l
0m
xq
xr
0s
0t
0u
06!
07!
08!
09!
0:!
0;!
0<!
1=!
0>!
0?!
0@!
0A!
0B!
1C!
1D!
0E!
0F!
0G!
0H!
xI!
xJ!
0K!
0L!
0M!
1N!
0O!
0P!
0Q!
0R!
0S!
0T!
0U!
0V!
1W!
0X!
0Y!
0Z!
0[!
0\!
1]!
1^!
x_!
1`!
0a!
0b!
0c!
0d!
0e!
0f!
0g!
0h!
0i!
0j!
0k!
0l!
0m!
0n!
0o!
0p!
xq!
0r!
0s!
0t!
0u!
0v!
0w!
0x!
0y!
0z!
0{!
0|!
0}!
0~!
0!"
0""
0#"
0$"
0%"
0&"
0'"
0("
0)"
0*"
0+"
0,"
0-"
0."
0/"
00"
x1"
02"
03"
04"
1I"
1J"
1N"
1O"
1P"
1Q"
1R"
1S"
1T"
1U"
1V"
1W"
1X"
1Y"
1Z"
1["
1_"
1`"
1f"
1g"
1h"
1i"
1j"
1k"
1l"
xm"
xn"
xo"
1p"
1q"
1r"
0'
0(
1)
1*
0X
0Y
0Z
0[
0\
0`
0a
1b
1c
0d
0e
0f
0g
0h
0n
0o
0p
0v
0{
0|
0#!
0$!
0)!
0*!
0/!
00!
05!
05"
06"
07"
08"
09"
0:"
0;"
0<"
0="
0>"
0?"
0@"
0A"
0B"
0C"
0D"
0E"
0F"
0G"
0H"
1K"
1L"
1M"
1\"
1]"
1^"
1a"
1b"
1c"
1d"
1e"
01!
02!
03!
04!
0+!
0,!
0-!
0.!
0}
0~
0!!
0"!
0%!
0&!
0'!
0(!
0w
0x
0y
0z
0/
00
01
02
03
04
05
06
07
08
09
0:
0;
$end
#2500
1"
1]
1\!
#5000
0"
0!
0]
0_
0N!
0\!
#7500
1"
1]
1\!
1#!
17"
0c"
1d!
1:!
1Z
19
#10000
0"
1!
0]
1_
1N!
0\!
1>"
1<"
10!
1|
1@!
1B!
1f
1h
16
14
#12500
1"
1]
1\!
#15000
0"
0!
0]
0_
0N!
0\!
#17500
1"
1]
1\!
#20000
0"
1!
0]
1_
1N!
0\!
#22500
1"
1]
1\!
#25000
0"
0!
0]
0_
0N!
0\!
#27500
1"
1]
1\!
#30000
0"
1!
0]
1_
1N!
0\!
#32500
1"
1]
1\!
#35000
0"
0!
0]
0_
0N!
0\!
#37500
1"
1]
1\!
#40000
0"
1!
0]
1_
1N!
0\!
#42500
1"
1]
1\!
#45000
0"
0!
0]
0_
0N!
0\!
#47500
1"
1]
1\!
#50000
0"
1!
0]
1_
1N!
0\!
#52500
1"
1]
1\!
#55000
0"
0!
0]
0_
0N!
0\!
#57500
1"
1]
1\!
#60000
0"
1!
0]
1_
1N!
0\!
#62500
1"
1]
1\!
#65000
0"
0!
0]
0_
0N!
0\!
#67500
1"
1]
1\!
#70000
0"
1!
1?
0]
1_
1Q
1R!
1N!
0\!
#72500
1"
1]
1\!
#75000
0"
0!
0]
0_
0N!
0\!
#77500
1"
1]
1\!
#80000
0"
1!
0]
1_
1N!
0\!
#82500
1"
1]
1\!
#85000
0"
0!
0]
0_
0N!
0\!
#87500
1"
1]
1\!
#90000
0"
1!
1D
0]
1_
1R
1P!
1N!
0\!
0k"
1Q!
1T!
#92500
1"
1]
1\!
#95000
0"
0!
0]
0_
0N!
0\!
#97500
1"
1]
1\!
#100000
0"
1!
0]
1_
1N!
0\!
1S!
1U!
0Q"
0r"
#102500
1"
1]
1\!
#105000
0"
0!
0]
0_
0N!
0\!
#107500
1"
1]
1\!
#110000
0"
1!
0]
1_
1N!
0\!
#112500
1"
1]
1\!
#115000
0"
0!
0]
0_
0N!
0\!
#117500
1"
1]
1\!
#120000
0"
1!
0]
1_
1N!
0\!
#122500
1"
1]
1\!
#125000
0"
0!
0]
0_
0N!
0\!
#127500
1"
1]
1\!
#130000
0"
1!
0]
1_
1N!
0\!
#132500
1"
1]
1\!
#135000
0"
0!
0]
0_
0N!
0\!
#137500
1"
1]
1\!
#140000
0"
1!
0]
1_
1N!
0\!
#142500
1"
1]
1\!
#145000
0"
0!
0]
0_
0N!
0\!
#147500
1"
1]
1\!
#150000
0"
1!
0]
1_
1N!
0\!
#152500
1"
1]
1\!
#155000
0"
0!
0]
0_
0N!
0\!
#157500
1"
1]
1\!
#160000
0"
1!
0D
0]
1_
0R
0P!
1N!
0\!
1k"
0T!
1/"
#162500
1"
1]
1\!
#165000
0"
0!
0]
0_
0N!
0\!
#167500
1"
1]
1\!
#170000
0"
1!
0]
1_
1N!
0\!
0U!
10"
0`"
1Q"
0_!
1m"
16!
1P
1,
#172500
1"
1]
1\!
#175000
0"
0!
0]
0_
0N!
0\!
#177500
1"
1]
1\!
#180000
0"
1!
1+
0]
1_
1V
1O!
1N!
0\!
0l"
1_!
1g!
0/"
0m"
#182500
1"
1]
1\!
#185000
0"
0!
0]
0_
0N!
0\!
#187500
1"
1]
1\!
#190000
0"
1!
0]
1_
1N!
0\!
1H"
1G"
1h!
00"
1`"
0p"
14!
13!
1.!
1-!
1(!
1'!
1"!
1!!
1z
1y
06!
0P
0,
#192500
1"
1]
1\!
#195000
0"
0!
0]
0_
0N!
0\!
#197500
1"
1]
1\!
1{
15!
15"
19"
0e"
0a"
1f!
0]!
1c!
1x!
0_"
1<!
18!
1\
1X
1;
17
17!
1W
1F
#200000
0"
1!
0+
1#
0]
1_
0V
1k
1[!
0O!
1N!
0\!
1l"
0g"
0>"
1="
1:"
0g!
1i!
00!
1*!
1v
1>!
1A!
0B!
1d
1g
0h
06
15
12
#202500
1"
1]
1\!
#205000
0"
0!
0]
0_
0N!
0\!
#207500
1"
1]
1\!
#210000
0"
1!
0]
1_
1N!
0\!
0h!
1j!
0q"
1p"
0i!
1k!
#212500
1"
1]
1\!
#215000
0"
0!
0]
0_
0N!
0\!
#217500
1"
1]
1\!
#220000
0"
1!
0]
1_
1N!
0\!
0j!
1l!
0J"
1q"
01"
1n"
0J!
0r
0@
#222500
1"
1]
1\!
#225000
0"
0!
0]
0_
0N!
0\!
#227500
1"
1]
1\!
#230000
0"
1!
0#
0]
1_
0k
0[!
1N!
0\!
1g"
0k!
1m!
11"
0n"
1J!
1r
1@
#232500
1"
1]
1\!
#235000
0"
0!
0]
0_
0N!
0\!
#237500
1"
1]
1\!
#240000
0"
1!
0]
1_
1N!
0\!
0l!
1n!
0U"
1J"
13"
1L!
1t
1-
#242500
1"
1]
1\!
#245000
0"
0!
0]
0_
0N!
0\!
#247500
1"
1]
1\!
#250000
0"
1!
0]
1_
1N!
0\!
#252500
1"
1]
1\!
#255000
0"
0!
0]
0_
0N!
0\!
#257500
1"
1]
1\!
#260000
0"
1!
1>
0]
1_
1U
1V!
1N!
0\!
0i"
#262500
1"
1]
1\!
#265000
0"
0!
0]
0_
0N!
0\!
#267500
1"
1]
1\!
#270000
0"
1!
0]
1_
1N!
0\!
#272500
1"
1]
1\!
#275000
0"
0!
0]
0_
0N!
0\!
#277500
1"
1]
1\!
#280000
0"
1!
0]
1_
1N!
0\!
#282500
1"
1]
1\!
#285000
0"
0!
0]
0_
0N!
0\!
#287500
1"
1]
1\!
#290000
0"
1!
0]
1_
1N!
0\!
#292500
1"
1]
1\!
#295000
0"
0!
0]
0_
0N!
0\!
#297500
1"
1]
1\!
#300000
0"
1!
0>
0]
1_
0U
0V!
1N!
0\!
1i"
#302500
1"
1]
1\!
#305000
0"
0!
0]
0_
0N!
0\!
#307500
1"
1]
1\!
#310000
0"
1!
0]
1_
1N!
0\!
#312500
1"
1]
1\!
#315000
0"
0!
0]
0_
0N!
0\!
#317500
1"
1]
1\!
#320000
0"
1!
0]
1_
1N!
0\!
#322500
1"
1]
1\!
#325000
0"
0!
0]
0_
0N!
0\!
#327500
1"
1]
1\!
#330000
0"
1!
0]
1_
1N!
0\!
#332500
1"
1]
1\!
#335000
0"
0!
0]
0_
0N!
0\!
#337500
1"
1]
1\!
#340000
0"
1!
1.
0]
1_
1l
1X!
1N!
0\!
0h"
0m!
1o!
#342500
1"
1]
1\!
#345000
0"
0!
0]
0_
0N!
0\!
#347500
1"
1]
1\!
#350000
0"
1!
0]
1_
1N!
0\!
0n!
1p!
0T"
1U"
0q!
1o"
0I!
0q
0$
#352500
1"
1]
1\!
#355000
0"
0!
0]
0_
0N!
0\!
#357500
1"
1]
1\!
#360000
0"
1!
0.
0]
1_
0l
0X!
1N!
0\!
1h"
1Y!
0o!
1q!
0o"
1I!
1q
1$
#362500
1"
1]
1\!
#365000
0"
0!
0]
0_
0N!
0\!
#367500
1"
1]
1\!
#370000
0"
1!
0]
1_
1N!
0\!
1Z!
0p!
1A"
0^"
1T"
0V"
1m!
0Y!
1H!
1p
11
#372500
1"
1]
1\!
#375000
0"
0!
0]
0_
0N!
0\!
#377500
1"
1]
1\!
#380000
0"
1!
1.
0]
1_
1l
1X!
1N!
0\!
0h"
0Z!
1n!
1D"
0M"
0U"
1V"
0m!
1o!
0W!
1r!
#382500
1"
1]
1\!
#385000
0"
0!
0]
0_
0N!
0\!
#387500
1"
1]
1\!
#390000
0"
1!
0]
1_
1N!
0\!
0n!
1p!
0A"
1@"
0]"
1^"
0T"
1U"
0q!
1o"
1G!
0H!
1o
0p
01
10
0I!
0q
0$
#392500
1"
1]
1\!
#395000
0"
0!
0]
0_
0N!
0\!
#397500
1"
1]
1\!
#400000
0"
1!
0.
0]
1_
0l
0X!
1N!
0\!
1h"
1C"
0D"
1Y!
0o!
1q!
1M"
0L"
0o"
1W!
1I!
1q
1$
#402500
1"
1]
1\!
#405000
0"
0!
0]
0_
0N!
0\!
#407500
1"
1]
1\!
#410000
0"
1!
0]
1_
1N!
0\!
1Z!
0p!
1A"
0^"
1T"
0V"
1m!
0Y!
1H!
1p
11
#412500
1"
1]
1\!
#415000
0"
0!
0]
0_
0N!
0\!
#417500
1"
1]
1\!
#420000
0"
1!
1.
0]
1_
1l
1X!
1N!
0\!
0h"
0Z!
1n!
1D"
0M"
0U"
1V"
0m!
1o!
0W!
0r!
1t!
#422500
1"
1]
1\!
#425000
0"
0!
0]
0_
0N!
0\!
#427500
1"
1]
1\!
#430000
0"
1!
0]
1_
1N!
0\!
0n!
1p!
0A"
0@"
1?"
0\"
1]"
1^"
0T"
1U"
0q!
1o"
1F!
0G!
0H!
1n
0o
0p
01
00
1/
0I!
0q
0$
#432500
1"
1]
1\!
#435000
0"
0!
0]
0_
0N!
0\!
#437500
1"
1]
1\!
#440000
0"
1!
0.
0]
1_
0l
0X!
1N!
0\!
1h"
0C"
0D"
1B"
1Y!
0o!
1q!
0K"
1M"
1L"
0o"
1W!
1I!
1q
1$
#442500
1"
1]
1\!
#445000
0"
0!
0]
0_
0N!
0\!
#447500
1"
1]
1\!
#450000
0"
1!
0]
1_
1N!
0\!
1Z!
0p!
1A"
0^"
1T"
0V"
1m!
0Y!
1s!
1u!
0["
1H!
0m!
1p
11
1E!
1m
1E
#452500
1"
1]
1\!
#455000
0"
0!
0]
0_
0N!
0\!
#457500
1"
1]
1\!
#460000
0"
1!
1.
0]
1_
1l
1X!
1N!
0\!
0h"
0Z!
1v!
0N"
1V"
0u!
03"
1w!
1%"
0L!
0t
0-
#462500
1"
1]
1\!
#465000
0"
0!
0]
0_
0N!
0\!
#467500
1"
1]
1\!
1/!
05!
18"
09"
1e"
0d"
1]!
0<!
1;!
0\
1[
0;
1:
#470000
0"
1!
0]
1_
1N!
0\!
1>"
0v!
1&"
0S"
1N"
10!
0w!
14"
1B!
1h
16
1M!
1u
1&
#472500
1"
1]
1\!
#475000
0"
0!
0]
0_
0N!
0\!
#477500
1"
1]
1\!
#480000
0"
1!
0.
0]
1_
0l
0X!
1N!
0\!
1h"
#482500
1"
1]
1\!
#485000
0"
0!
0]
0_
0N!
0\!
#487500
1"
1]
1\!
#490000
0"
1!
0]
1_
1N!
0\!
#492500
1"
1]
1\!
#495000
0"
0!
0]
0_
0N!
0\!
#497500
1"
1]
1\!
#500000
0"
1!
1.
0]
1_
1l
1X!
1N!
0\!
0h"
#502500
1"
1]
1\!
#505000
0"
0!
0]
0_
0N!
0\!
#507500
1"
1]
1\!
#510000
0"
1!
0]
1_
1N!
0\!
#512500
1"
1]
1\!
#515000
0"
0!
0]
0_
0N!
0\!
#517500
1"
1]
1\!
#520000
0"
1!
0.
0]
1_
0l
0X!
1N!
0\!
1h"
#522500
1"
1]
1\!
#525000
0"
0!
0]
0_
0N!
0\!
#527500
1"
1]
1\!
#530000
0"
1!
0]
1_
1N!
0\!
#532500
1"
1]
1\!
#535000
0"
0!
0]
0_
0N!
0\!
#537500
1"
1]
1\!
#540000
0"
1!
1.
0]
1_
1l
1X!
1N!
0\!
0h"
#542500
1"
1]
1\!
#545000
0"
0!
0]
0_
0N!
0\!
#547500
1"
1]
1\!
#550000
0"
1!
0]
1_
1N!
0\!
#552500
1"
1]
1\!
#555000
0"
0!
0]
0_
0N!
0\!
#557500
1"
1]
1\!
#560000
0"
1!
0.
0]
1_
0l
0X!
1N!
0\!
1h"
#562500
1"
1]
1\!
#565000
0"
0!
0]
0_
0N!
0\!
#567500
1"
1]
1\!
#570000
0"
1!
0]
1_
1N!
0\!
#572500
1"
1]
1\!
#575000
0"
0!
0]
0_
0N!
0\!
#577500
1"
1]
1\!
#580000
0"
1!
0]
1_
1N!
0\!
#582500
1"
1]
1\!
#585000
0"
0!
0]
0_
0N!
0\!
#587500
1"
1]
1\!
#590000
0"
1!
0]
1_
1N!
0\!
#592500
1"
1]
1\!
#595000
0"
0!
0]
0_
0N!
0\!
#597500
1"
1]
1\!
#600000
0"
1!
0]
1_
1N!
0\!
#602500
1"
1]
1\!
#605000
0"
0!
0]
0_
0N!
0\!
#607500
1"
1]
1\!
#610000
0"
1!
0]
1_
1N!
0\!
#612500
1"
1]
1\!
#615000
0"
0!
0]
0_
0N!
0\!
#617500
1"
1]
1\!
#620000
0"
1!
0]
1_
1N!
0\!
#622500
1"
1]
1\!
#625000
0"
0!
0]
0_
0N!
0\!
#627500
1"
1]
1\!
